Temperatur T in [K] 			 Antoinedruck in [kPa] 			 gemessener Druck in [kPa] 			 Fehler/Differenz
240.15                        0.59400                               0.61000                            -0.01600
250.87                        1.34958                               1.32000                            0.02958
260.16                        2.54670                               2.61000                            -0.06330
271.47                        5.09101                               4.82000                            0.27101
281.16                        8.67942                               8.38000                            0.29942
289.57                        13.26589                               13.84000                            -0.57411
303.16                        24.65801                               25.04000                            -0.38199
311.47                        34.78870                               35.07000                            -0.28130
320.76                        49.73443                               50.01000                            -0.27557
326.85                        61.97771                               62.46000                            -0.48229
330.16                        69.54756                               69.64000                            -0.09244
337.14                        87.84164                               87.26000                            0.58164
339.73                        95.49499                               94.85000                            0.64499
341.79                        101.93814                               101.32000                            0.61814
